<svg width="127" height="37" viewBox="0 0 127 37" fill="none" xmlns="http://www.w3.org/2000/svg">
<path d="M-0.000976562 17.5996L7.12902 17.5996L7.12902 20.4496L-0.000976438 20.4496L-0.000976562 17.5996ZM14.269 17.5996L21.399 17.5996L21.399 20.4496L14.269 20.4496L14.269 17.5996ZM28.539 17.5996L35.669 17.5996L35.669 20.4496L28.539 20.4496L28.539 17.5996Z" fill="#1C81DF"/>
<path d="M42.7295 17.5996L49.9095 17.5996L49.9095 20.4496L42.7295 20.4496L42.7295 17.5996ZM56.9995 17.5996L64.1295 17.5996L64.1295 20.4496L56.9995 20.4496L56.9995 17.5996ZM71.2695 17.5996L78.3995 17.5996L78.3995 20.4496L71.2695 20.4496L71.2695 17.5996Z" fill="#1C81DF"/>
<path d="M71.2705 17.5996L78.4005 17.5996L78.4005 20.4496L71.2705 20.4496L71.2705 17.5996ZM85.5405 17.5996L92.6705 17.5996L92.6705 20.4496L85.5405 20.4496L85.5405 17.5996ZM99.8105 17.5996L106.911 17.5996L106.911 20.4496L99.8105 20.4496L99.8105 17.5996Z" fill="#1C81DF"/>
<path d="M117.661 28.0503C112.678 29.222 107.688 26.1317 106.516 21.1479C105.344 16.1641 108.435 11.1741 113.418 10.0024C118.402 8.8307 123.392 11.921 124.564 16.9048C125.736 21.8886 122.645 26.8786 117.661 28.0503Z" fill="#1C81DF"/>
<path d="M115.541 14.4102C114.628 14.4102 113.736 14.6811 112.977 15.1885C112.219 15.6959 111.628 16.4171 111.28 17.2606C110.931 18.1042 110.841 19.0321 111.021 19.9269C111.2 20.8217 111.641 21.6431 112.288 22.287C112.935 22.9309 113.758 23.3684 114.654 23.544C115.549 23.7196 116.477 23.6255 117.319 23.2735C118.161 22.9215 118.879 22.3275 119.383 21.5668C119.888 20.806 120.155 19.9128 120.151 19.0002C120.149 18.3961 120.029 17.7982 119.797 17.2406C119.564 16.683 119.224 16.1766 118.796 15.7504C118.368 15.3242 117.86 14.9864 117.302 14.7565C116.743 14.5265 116.145 14.4089 115.541 14.4102Z" fill="white"/>
<path d="M45.2592 18.3605C45.2592 22.2542 42.1028 25.4105 38.2092 25.4105C34.3156 25.4105 31.1592 22.2542 31.1592 18.3605C31.1592 14.4669 34.3156 11.3105 38.2092 11.3105C42.1028 11.3105 45.2592 14.4669 45.2592 18.3605Z" fill="#1C81DF"/>
<path d="M51.7202 18.3596C51.7202 15.6876 50.9279 13.0756 49.4434 10.8539C47.9589 8.63215 45.8489 6.90054 43.3803 5.878C40.9116 4.85546 38.1952 4.58792 35.5745 5.10921C32.9538 5.63049 30.5466 6.9172 28.6572 8.8066C26.7678 10.696 25.4811 13.1033 24.9598 15.7239C24.4385 18.3446 24.7061 21.061 25.7286 23.5297C26.7511 25.9983 28.4827 28.1083 30.7044 29.5928C32.9262 31.0773 35.5382 31.8696 38.2102 31.8696C41.7925 31.867 45.2272 30.4427 47.7603 27.9097C50.2933 25.3767 51.7175 21.9419 51.7202 18.3596ZM25.9602 18.3596C25.9622 15.9372 26.6823 13.5698 28.0296 11.5566C29.3768 9.54342 31.2907 7.97486 33.5293 7.04922C35.7678 6.12358 38.2306 5.88242 40.6062 6.35622C42.9818 6.83001 45.1636 7.9975 46.8758 9.71109C48.588 11.4247 49.7537 13.6074 50.2255 15.9834C50.6974 18.3594 50.4542 20.822 49.5268 23.0598C48.5993 25.2976 47.0292 27.2102 45.0149 28.5558C43.0006 29.9014 40.6326 30.6196 38.2102 30.6196C34.9612 30.6143 31.8469 29.3206 29.5505 27.0223C27.254 24.724 25.9628 21.6086 25.9602 18.3596Z" fill="#1C81DF"/>
<path d="M56.579 18.36L56.579 17.74L55.949 17.74C55.9795 18.5644 55.9494 19.39 55.859 20.21L56.489 20.28C56.539 19.67 56.579 19 56.579 18.36ZM56.479 16.46C56.3916 15.6107 56.2446 14.7686 56.039 13.94L55.429 14.09C55.6272 14.8927 55.7709 15.7079 55.859 16.53L56.479 16.46ZM56.299 21.57L55.679 21.46C55.5393 22.2739 55.3387 23.0761 55.079 23.86L55.679 24.05C55.9419 23.2384 56.149 22.4098 56.299 21.57ZM55.689 12.71C55.415 11.893 55.0808 11.0975 54.689 10.33L54.129 10.61C54.4895 11.3506 54.797 12.1158 55.049 12.9L55.689 12.71ZM55.239 25.26L54.659 25C54.3463 25.7638 53.9821 26.5055 53.569 27.22L54.119 27.54C54.5414 26.8051 54.9155 26.0435 55.239 25.26ZM54.129 9.2C53.7024 8.46083 53.2245 7.75244 52.699 7.08L52.199 7.46C52.7066 8.11226 53.1709 8.79705 53.589 9.51L54.129 9.2ZM53.439 28.64L52.909 28.29C52.4451 28.9749 51.9339 29.6265 51.379 30.24L51.849 30.66C52.421 30.0208 52.9521 29.3462 53.439 28.64ZM51.909 6.09C51.3357 5.45666 50.721 4.86202 50.069 4.31L49.659 4.79C50.2806 5.32304 50.8653 5.8977 51.409 6.51L51.909 6.09ZM50.999 31.58L50.559 31.13C49.9664 31.703 49.3349 32.2342 48.669 32.72L49.029 33.23C49.7112 32.7232 50.3593 32.172 50.969 31.58L50.999 31.58ZM49.029 3.52C48.3536 3.01971 47.6453 2.56535 46.909 2.16L46.619 2.71C47.3266 3.09471 48.0081 3.52565 48.659 4L49.029 3.52ZM47.909 33.94L47.579 33.41C46.8816 33.8494 46.153 34.2371 45.399 34.57L45.649 35.15C46.4289 34.7985 47.184 34.3942 47.909 33.94ZM45.709 1.6C44.9319 1.24771 44.1297 0.953572 43.309 0.719999L43.139 1.32C43.931 1.54965 44.7061 1.83366 45.459 2.17L45.709 1.6ZM44.489 35.6L44.279 35C43.5061 35.293 42.7143 35.5336 41.909 35.72L42.039 36.33C42.8715 36.156 43.6903 35.922 44.489 35.63L44.489 35.6ZM42.059 0.399999C41.2242 0.228141 40.3791 0.111223 39.529 0.0499991L39.479 0.669999C40.2955 0.724846 41.1074 0.835099 41.909 0.999999L42.059 0.399999ZM40.769 36.55L40.679 35.93C39.8609 36.047 39.0354 36.1038 38.209 36.1L38.139 36.73L38.209 36.73C39.0655 36.7305 39.921 36.6703 40.769 36.55ZM38.239 0.169999L38.239 -8.03271e-07C37.3895 0.000850432 36.541 0.05764 35.699 0.169999L35.789 0.789999C36.5911 0.682078 37.3996 0.628622 38.209 0.629999L38.239 0.169999ZM36.909 36.06C36.0887 35.9988 35.2735 35.8818 34.469 35.71L34.329 36.32C35.1793 36.5012 36.0415 36.6215 36.909 36.68L36.909 36.06ZM34.559 0.999999L34.429 0.389999C33.5932 0.563569 32.771 0.797515 31.969 1.09L32.179 1.68C32.9553 1.39747 33.7506 1.17024 34.559 0.999999ZM33.259 35.4C32.4572 35.1704 31.6721 34.8864 30.909 34.55L30.649 35.12C31.4255 35.4739 32.2278 35.7681 33.049 36L33.259 35.4ZM31.029 2.14L30.769 1.57C29.9874 1.91438 29.2321 2.31545 28.509 2.77L28.839 3.3C29.5398 2.86057 30.2718 2.47287 31.029 2.14ZM29.829 34C29.1007 33.6121 28.4022 33.1709 27.739 32.68L27.369 33.19C28.0556 33.6943 28.7775 34.1488 29.529 34.55L29.829 34ZM27.829 4L27.459 3.49C26.7563 3.99119 26.0881 4.53909 25.459 5.13L25.899 5.59C26.4992 5.01373 27.141 4.4823 27.819 4L27.829 4ZM26.769 31.92C26.1403 31.3878 25.5489 30.8132 24.999 30.2L24.529 30.62C25.1023 31.2533 25.717 31.848 26.369 32.4L26.769 31.92ZM25.059 6.47L24.589 6.05C24.0185 6.6808 23.4906 7.34895 23.009 8.05L23.529 8.4C23.9909 7.71993 24.5022 7.07485 25.059 6.47ZM24.199 29.24C23.6932 28.6061 23.2321 27.9378 22.819 27.24L22.279 27.55C22.701 28.2897 23.1756 28.9982 23.699 29.67L24.199 29.24ZM22.909 9.46L22.369 9.14C21.9386 9.87909 21.561 10.6477 21.239 11.44L21.819 11.68C22.1256 10.9135 22.49 10.1713 22.909 9.46ZM22.279 26.09C21.9168 25.3467 21.6093 24.578 21.359 23.79L20.759 23.99C21.0312 24.8044 21.3655 25.5967 21.759 26.36L22.279 26.09ZM21.389 12.84L20.799 12.64C20.5304 13.4507 20.3199 14.2794 20.169 15.12L20.789 15.23C20.9157 14.4205 21.1028 13.6215 21.349 12.84L21.389 12.84ZM21.019 22.6C20.8297 21.7993 20.6895 20.9878 20.599 20.17L19.979 20.23C20.0679 21.0784 20.2115 21.9201 20.409 22.75L21.019 22.6ZM20.609 16.46L19.909 16.39C19.8467 17.2589 19.8467 18.1311 19.909 19L20.529 19C20.4896 18.1533 20.5029 17.305 20.569 16.46L20.609 16.46Z" fill="#1C81DF"/>
</svg>
