<svg width="127" height="37" viewBox="0 0 127 37" fill="none" xmlns="http://www.w3.org/2000/svg">
<path d="M126.687 17.5996L119.557 17.5996L119.557 20.4496L126.687 20.4496L126.687 17.5996ZM112.417 17.5996L105.287 17.5996L105.287 20.4496L112.417 20.4496L112.417 17.5996ZM98.1465 17.5996L91.0165 17.5996L91.0165 20.4496L98.1465 20.4496L98.1465 17.5996Z" fill="#1E8ED7"/>
<path d="M83.9561 17.5996L76.7761 17.5996L76.7761 20.4496L83.9561 20.4496L83.9561 17.5996ZM69.6861 17.5996L62.5561 17.5996L62.5561 20.4496L69.6861 20.4496L69.6861 17.5996ZM55.4161 17.5996L48.2861 17.5996L48.2861 20.4496L55.4161 20.4496L55.4161 17.5996Z" fill="#1E8ED7"/>
<path d="M55.415 17.5996L48.285 17.5996L48.285 20.4496L55.415 20.4496L55.415 17.5996ZM41.145 17.5996L34.015 17.5996L34.015 20.4496L41.145 20.4496L41.145 17.5996ZM26.875 17.5996L19.775 17.5996L19.775 20.4496L26.875 20.4496L26.875 17.5996Z" fill="#1E8ED7"/>
<path d="M9.02406 28.0503C14.0079 29.222 18.9979 26.1317 20.1696 21.1479C21.3413 16.1641 18.2509 11.1741 13.2671 10.0024C8.28333 8.8307 3.29332 11.921 2.12162 16.9048C0.949932 21.8886 4.04026 26.8786 9.02406 28.0503Z" fill="#1E8ED7"/>
<path d="M11.1449 14.4102C12.0575 14.4102 12.9496 14.6811 13.7082 15.1885C14.4667 15.6959 15.0576 16.4171 15.4059 17.2606C15.7542 18.1042 15.8443 19.0321 15.6648 19.9269C15.4853 20.8217 15.0443 21.6431 14.3975 22.287C13.7508 22.9309 12.9275 23.3684 12.032 23.544C11.1364 23.7196 10.2089 23.6255 9.36685 23.2735C8.52484 22.9215 7.80625 22.3275 7.30211 21.5668C6.79797 20.806 6.53095 19.9128 6.53491 19.0002C6.53623 18.3961 6.65652 17.7982 6.8889 17.2406C7.12129 16.683 7.46122 16.1766 7.8893 15.7504C8.31738 15.3242 8.82521 14.9864 9.38381 14.7565C9.94241 14.5265 10.5408 14.4089 11.1449 14.4102Z" fill="white"/>
<path d="M81.4264 18.3605C81.4264 22.2542 84.5828 25.4105 88.4764 25.4105C92.37 25.4105 95.5264 22.2542 95.5264 18.3605C95.5264 14.4669 92.37 11.3105 88.4764 11.3105C84.5828 11.3105 81.4264 14.4669 81.4264 18.3605Z" fill="#1E8ED7"/>
<path d="M74.9653 18.3596C74.9653 15.6876 75.7577 13.0756 77.2422 10.8539C78.7267 8.63215 80.8367 6.90054 83.3053 5.878C85.7739 4.85546 88.4903 4.58792 91.111 5.10921C93.7317 5.63049 96.139 6.9172 98.0284 8.8066C99.9178 10.696 101.204 13.1033 101.726 15.7239C102.247 18.3446 101.979 21.061 100.957 23.5297C99.9344 25.9983 98.2028 28.1083 95.9811 29.5928C93.7594 31.0773 91.1474 31.8696 88.4753 31.8696C84.8931 31.867 81.4583 30.4427 78.9253 27.9097C76.3922 25.3767 74.968 21.9419 74.9653 18.3596ZM100.725 18.3596C100.723 15.9372 100.003 13.5698 98.656 11.5566C97.3087 9.54342 95.3949 7.97486 93.1563 7.04922C90.9177 6.12358 88.455 5.88242 86.0794 6.35622C83.7038 6.83001 81.522 7.9975 79.8098 9.71109C78.0976 11.4247 76.9319 13.6074 76.46 15.9834C75.9881 18.3594 76.2313 20.822 77.1588 23.0598C78.0863 25.2976 79.6564 27.2102 81.6706 28.5558C83.6849 29.9014 86.0529 30.6196 88.4753 30.6196C91.7243 30.6143 94.8386 29.3206 97.1351 27.0223C99.4315 24.724 100.723 21.6086 100.725 18.3596Z" fill="#1E8ED7"/>
<path d="M70.1066 18.36L70.1066 17.74L70.7365 17.74C70.706 18.5644 70.7361 19.39 70.8266 20.21L70.1965 20.28C70.1465 19.67 70.1066 19 70.1066 18.36ZM70.2065 16.46C70.294 15.6107 70.441 14.7686 70.6466 13.94L71.2566 14.09C71.0583 14.8927 70.9147 15.7079 70.8266 16.53L70.2065 16.46ZM70.3865 21.57L71.0066 21.46C71.1463 22.2739 71.3468 23.0761 71.6066 23.86L71.0066 24.05C70.7436 23.2384 70.5365 22.4098 70.3865 21.57ZM70.9966 12.71C71.2705 11.893 71.6048 11.0975 71.9966 10.33L72.5565 10.61C72.196 11.3506 71.8886 12.1158 71.6366 12.9L70.9966 12.71ZM71.4465 25.26L72.0265 25C72.3393 25.7638 72.7035 26.5055 73.1165 27.22L72.5666 27.54C72.1441 26.8051 71.77 26.0435 71.4465 25.26ZM72.5565 9.2C72.9832 8.46083 73.461 7.75244 73.9865 7.08L74.4865 7.46C73.979 8.11226 73.5146 8.79705 73.0965 9.51L72.5565 9.2ZM73.2466 28.64L73.7765 28.29C74.2404 28.9749 74.7517 29.6265 75.3065 30.24L74.8365 30.66C74.2645 30.0208 73.7335 29.3462 73.2466 28.64ZM74.7766 6.09C75.3499 5.45666 75.9646 4.86202 76.6165 4.31L77.0266 4.79C76.4049 5.32304 75.8203 5.8977 75.2766 6.51L74.7766 6.09ZM75.6866 31.58L76.1265 31.13C76.7191 31.703 77.3506 32.2342 78.0165 32.72L77.6565 33.23C76.9743 32.7232 76.3263 32.172 75.7166 31.58L75.6866 31.58ZM77.6565 3.52C78.332 3.01971 79.0402 2.56535 79.7766 2.16L80.0666 2.71C79.3589 3.09471 78.6775 3.52565 78.0266 4L77.6565 3.52ZM78.7765 33.94L79.1066 33.41C79.8039 33.8494 80.5325 34.2371 81.2866 34.57L81.0366 35.15C80.2566 34.7985 79.5015 34.3942 78.7765 33.94ZM80.9765 1.6C81.7537 1.24771 82.5559 0.953572 83.3765 0.719999L83.5465 1.32C82.7546 1.54965 81.9794 1.83366 81.2265 2.17L80.9765 1.6ZM82.1965 35.6L82.4065 35C83.1795 35.293 83.9713 35.5336 84.7765 35.72L84.6466 36.33C83.8141 36.156 82.9953 35.922 82.1965 35.63L82.1965 35.6ZM84.6265 0.399999C85.4613 0.228141 86.3065 0.111223 87.1565 0.0499991L87.2066 0.669999C86.39 0.724846 85.5781 0.835099 84.7766 0.999999L84.6265 0.399999ZM85.9165 36.55L86.0066 35.93C86.8246 36.047 87.6502 36.1038 88.4765 36.1L88.5465 36.73L88.4765 36.73C87.62 36.7305 86.7646 36.6703 85.9165 36.55ZM88.4465 0.169999L88.4465 -8.03271e-07C89.296 0.000850432 90.1445 0.05764 90.9865 0.169999L90.8966 0.789999C90.0944 0.682078 89.2859 0.628622 88.4765 0.629999L88.4465 0.169999ZM89.7765 36.06C90.5969 35.9988 91.4121 35.8818 92.2166 35.71L92.3566 36.32C91.5062 36.5012 90.644 36.6215 89.7765 36.68L89.7765 36.06ZM92.1265 0.999999L92.2566 0.389999C93.0924 0.563569 93.9145 0.797515 94.7166 1.09L94.5066 1.68C93.7303 1.39747 92.9349 1.17024 92.1265 0.999999ZM93.4266 35.4C94.2283 35.1704 95.0135 34.8864 95.7765 34.55L96.0366 35.12C95.2601 35.4739 94.4577 35.7681 93.6365 36L93.4266 35.4ZM95.6565 2.14L95.9165 1.57C96.6981 1.91438 97.4535 2.31545 98.1766 2.77L97.8465 3.3C97.1457 2.86057 96.4138 2.47287 95.6565 2.14ZM96.8566 34C97.5848 33.6121 98.2834 33.1709 98.9465 32.68L99.3165 33.19C98.6299 33.6943 97.9081 34.1488 97.1565 34.55L96.8566 34ZM98.8566 4L99.2265 3.49C99.9292 3.99119 100.597 4.53909 101.227 5.13L100.787 5.59C100.186 5.01373 99.5446 4.4823 98.8665 4L98.8566 4ZM99.9165 31.92C100.545 31.3878 101.137 30.8132 101.687 30.2L102.157 30.62C101.583 31.2533 100.969 31.848 100.317 32.4L99.9165 31.92ZM101.627 6.47L102.097 6.05C102.667 6.6808 103.195 7.34895 103.677 8.05L103.157 8.4C102.695 7.71993 102.183 7.07485 101.627 6.47ZM102.487 29.24C102.992 28.6061 103.453 27.9378 103.867 27.24L104.407 27.55C103.985 28.2897 103.51 28.9982 102.987 29.67L102.487 29.24ZM103.777 9.46L104.317 9.14C104.747 9.87909 105.125 10.6477 105.447 11.44L104.867 11.68C104.56 10.9135 104.196 10.1713 103.777 9.46ZM104.407 26.09C104.769 25.3467 105.076 24.578 105.327 23.79L105.927 23.99C105.654 24.8044 105.32 25.5967 104.927 26.36L104.407 26.09ZM105.297 12.84L105.887 12.64C106.155 13.4507 106.366 14.2794 106.517 15.12L105.897 15.23C105.77 14.4205 105.583 13.6215 105.337 12.84L105.297 12.84ZM105.667 22.6C105.856 21.7993 105.996 20.9878 106.087 20.17L106.707 20.23C106.618 21.0784 106.474 21.9201 106.277 22.75L105.667 22.6ZM106.077 16.46L106.777 16.39C106.839 17.2589 106.839 18.1311 106.777 19L106.157 19C106.196 18.1533 106.183 17.305 106.117 16.46L106.077 16.46Z" fill="#1E8ED7"/>
</svg>
