<svg width="44" height="33" viewBox="0 0 44 33" fill="none" xmlns="http://www.w3.org/2000/svg">
<path d="M3.57635 32.3338H10.3626V15.853L0.667969 8.58203V29.4254C0.667969 31.0323 1.96947 32.3338 3.57635 32.3338Z" fill="#4285F4"/>
<path d="M33.6289 32.3338H40.4151C42.022 32.3338 43.3235 31.0323 43.3235 29.4254V8.58203L33.6289 15.853V32.3338Z" fill="#34A853"/>
<path d="M33.6289 3.2502V15.8532L43.3235 8.58223V4.70439C43.3235 1.11012 39.2203 -0.942712 36.3434 1.21433L33.6289 3.2502Z" fill="#FBBC04"/>
<path d="M10.3633 15.853V3.25L21.9968 11.9751L33.6303 3.25V15.853L21.9968 24.5781L10.3633 15.853Z" fill="#EA4335"/>
<path d="M0.667969 4.70439V8.58223L10.3626 15.8532V3.2502L7.64808 1.21433C4.77121 -0.942712 0.667969 1.11012 0.667969 4.70439Z" fill="#C5221F"/>
</svg>
